{
  "dimension": [
                 {
                   "label": "GHO",
                   "display": "Indicator"
                 },
                 {
                   "label": "PUBLISHSTATE",
                   "display": "PUBLISH STATES"
                 },
                 {
                   "label": "YEAR",
                   "display": "Year"
                 },
                 {
                   "label": "REGION",
                   "display": "WHO region"
                 },
                 {
                   "label": "COUNTRY",
                   "display": "Country"
                 },
                 {
                   "label": "SEX",
                   "display": "Sex"
                 }
               ],
    "fact": [
              {
                "dims": {
                          "COUNTRY": "Afghanistan",
                          "YEAR": "2013",
                          "GHO": "Adolescent birth rate (per 1000 women aged 15-19 years)"
                        },
                "Comments": "Afghanistan 2015 Demographic and Health Survey",
                "Value": "87"
              },
              {
                "dims": {
                          "COUNTRY": "Albania",
                          "YEAR": "2015",
                          "GHO": "Adolescent birth rate (per 1000 women aged 15-19 years)"
                        },
                "Comments": "Vital Registration",
                "Value": "18.9"
              },
              {
                "dims": {
                          "COUNTRY": "Algeria",
                          "YEAR": "2007",
                          "GHO": "Adolescent birth rate (per 1000 women aged 15-19 years)"
                        },
                "Comments": "Algeria 2008 Census",
                "Value": "9"
              },
              {
                "dims": {
                          "COUNTRY": "Angola",
                          "YEAR": "2014",
                          "GHO": "Adolescent birth rate (per 1000 women aged 15-19 years)"
                        },
                "Comments": "Angola 2015-2016 Demographic and Health Survey",
                "Value": "163"
              },
              {
                "dims": {
                          "COUNTRY": "Argentina",
                          "YEAR": "2015",
                          "GHO": "Adolescent birth rate (per 1000 women aged 15-19 years)"
                        },
                "Comments": "Vital Registration",
                "Value": "65.5"
              },
              {
                "dims": {
                          "COUNTRY": "Armenia",
                          "YEAR": "2015",
                          "GHO": "Adolescent birth rate (per 1000 women aged 15-19 years)"
                        },
                "Comments": "Vital Registration",
                "Value": "24.3"
              },
              {
                "dims": {
                          "COUNTRY": "Australia",
                          "YEAR": "2015",
                          "GHO": "Adolescent birth rate (per 1000 women aged 15-19 years)"
                        },
                "Comments": "Vital Registration",
                "Value": "11.9"
              },
              {
                "dims": {
                          "COUNTRY": "Austria",
                          "YEAR": "2015",
                          "GHO": "Adolescent birth rate (per 1000 women aged 15-19 years)"
                        },
                "Comments": "Vital Registration",
                "Value": "7.6"
              },
              {
                "dims": {
                          "COUNTRY": "Azerbaijan",
                          "YEAR": "2016",
                          "GHO": "Adolescent birth rate (per 1000 women aged 15-19 years)"
                        },
                "Comments": "Vital Registration",
                "Value": "52.8"
              },
              {
                "dims": {
                          "COUNTRY": "Bahamas",
                          "YEAR": "2012",
                          "GHO": "Adolescent birth rate (per 1000 women aged 15-19 years)"
                        },
                "Comments": "Vital Registration",
                "Value": "32"
              },
              {
                "dims": {
                          "COUNTRY": "Bahrain",
                          "YEAR": "2014",
                          "GHO": "Adolescent birth rate (per 1000 women aged 15-19 years)"
                        },
                "Comments": "Vital Registration",
                "Value": "14.3"
              },
              {
                "dims": {
                          "COUNTRY": "Bangladesh",
                          "YEAR": "2016",
                          "GHO": "Adolescent birth rate (per 1000 women aged 15-19 years)"
                        },
                "Comments": "Bangladesh Sample Vital Registration System",
                "Value": "78"
              },
              {
                "dims": {
                          "COUNTRY": "Barbados",
                          "YEAR": "2007",
                          "GHO": "Adolescent birth rate (per 1000 women aged 15-19 years)"
                        },
                "Comments": "Vital Registration",
                "Value": "49.7"
              },
              {
                "dims": {
                          "COUNTRY": "Belarus",
                          "YEAR": "2014",
                          "GHO": "Adolescent birth rate (per 1000 women aged 15-19 years)"
                        },
                "Comments": "Vital Registration",
                "Value": "20.5"
              },
              {
                "dims": {
                          "COUNTRY": "Belgium",
                          "YEAR": "2015",
                          "GHO": "Adolescent birth rate (per 1000 women aged 15-19 years)"
                        },
                "Comments": "Vital Registration",
                "Value": "6.6"
              },
              {
                "dims": {
                          "COUNTRY": "Belize",
                          "YEAR": "2014",
                          "GHO": "Adolescent birth rate (per 1000 women aged 15-19 years)"
                        },
                "Comments": "Belize 2015-2016 Multiple Indicator Cluster Survey",
                "Value": "74"
              },
              {
                "dims": {
                          "COUNTRY": "Benin",
                          "YEAR": "2014",
                          "GHO": "Adolescent birth rate (per 1000 women aged 15-19 years)"
                        },
                "Comments": "Benin 2014 Multiple Indicator Cluster Survey",
                "Value": "94"
              },
              {
                "dims": {
                          "COUNTRY": "Bhutan",
                          "YEAR": "2012",
                          "GHO": "Adolescent birth rate (per 1000 women aged 15-19 years)"
                        },
                "Comments": "Bhutan 2012 National Health Survey",
                "Value": "28.4"
              },
              {
                "dims": {
                          "COUNTRY": "Bolivia (Plurinational State of)",
                          "YEAR": "2015",
                          "GHO": "Adolescent birth rate (per 1000 women aged 15-19 years)"
                        },
                "Comments": "Bolivia 2016 Demographic and Health Survey (National)",
                "Value": "71"
              },
              {
                "dims": {
                          "COUNTRY": "Bosnia and Herzegovina",
                          "YEAR": "2014",
                          "GHO": "Adolescent birth rate (per 1000 women aged 15-19 years)"
                        },
                "Comments": "Vital Registration",
                "Value": "10.7"
              },
              {
                "dims": {
                          "COUNTRY": "Botswana",
                          "YEAR": "2011",
                          "GHO": "Adolescent birth rate (per 1000 women aged 15-19 years)"
                        },
                "Comments": "Botswana 2011 Census",
                "Value": "37.5"
              },
              {
                "dims": {
                          "COUNTRY": "Brazil",
                          "YEAR": "2015",
                          "GHO": "Adolescent birth rate (per 1000 women aged 15-19 years)"
                        },
                "Comments": "Vital Registration",
                "Value": "60.8"
              },
              {
                "dims": {
                          "COUNTRY": "Brunei Darussalam",
                          "YEAR": "2015",
                          "GHO": "Adolescent birth rate (per 1000 women aged 15-19 years)"
                        },
                "Comments": "Vital Registration",
                "Value": "11.4"
              },
              {
                "dims": {
                          "COUNTRY": "Bulgaria",
                          "YEAR": "2015",
                          "GHO": "Adolescent birth rate (per 1000 women aged 15-19 years)"
                        },
                "Comments": "Vital Registration",
                "Value": "39.4"
              },
              {
                "dims": {
                          "COUNTRY": "Burkina Faso",
                          "YEAR": "2014",
                          "GHO": "Adolescent birth rate (per 1000 women aged 15-19 years)"
                        },
                "Comments": "Burkina Faso 2016 PMA2020 Round 3",
                "Value": "122"
              },
              {
                "dims": {
                          "COUNTRY": "Burundi",
                          "YEAR": "2015",
                          "GHO": "Adolescent birth rate (per 1000 women aged 15-19 years)"
                        },
                "Comments": "Burundi 2016 Demographic and Health Survey (DHS)",
                "Value": "58"
              },
              {
                "dims": {
                          "COUNTRY": "Cabo Verde",
                          "YEAR": "2010",
                          "GHO": "Adolescent birth rate (per 1000 women aged 15-19 years)"
                        },
                "Comments": "Vital Registration",
                "Value": "80"
              },
              {
                "dims": {
                          "COUNTRY": "Cambodia",
                          "YEAR": "2013",
                          "GHO": "Adolescent birth rate (per 1000 women aged 15-19 years)"
                        },
                "Comments": "Cambodia 2014 Demographic and Health Survey",
                "Value": "57"
              },
              {
                "dims": {
                          "COUNTRY": "Cameroon",
                          "YEAR": "2014",
                          "GHO": "Adolescent birth rate (per 1000 women aged 15-19 years)"
                        },
                "Comments": "Cameroon 2014 Multiple Indicator Cluster Survey",
                "Value": "119"
              },
              {
                "dims": {
                          "COUNTRY": "Canada",
                          "YEAR": "2013",
                          "GHO": "Adolescent birth rate (per 1000 women aged 15-19 years)"
                        },
                "Comments": "Vital Registration",
                "Value": "11.1"
              },
              {
                "dims": {
                          "COUNTRY": "Central African Republic",
                          "YEAR": "2010",
                          "GHO": "Adolescent birth rate (per 1000 women aged 15-19 years)"
                        },
                "Comments": "Central African Republic 2010 Multiple Indicator Cluster Survey",
                "Value": "229"
              },
              {
                "dims": {
                          "COUNTRY": "Chad",
                          "YEAR": "2013",
                          "GHO": "Adolescent birth rate (per 1000 women aged 15-19 years)"
                        },
                "Comments": "Chad 2014-2015 Demographic and Health Survey and MICS",
                "Value": "179"
              },
              {
                "dims": {
                          "COUNTRY": "Chile",
                          "YEAR": "2014",
                          "GHO": "Adolescent birth rate (per 1000 women aged 15-19 years)"
                        },
                "Comments": "Vital Registration",
                "Value": "44.7"
              },
              {
                "dims": {
                          "COUNTRY": "China",
                          "YEAR": "2015",
                          "GHO": "Adolescent birth rate (per 1000 women aged 15-19 years)"
                        },
                "Comments": "China 2015 Annual Population Change Survey (1‰ Survey)",
                "Value": "9.2"
              },
              {
                "dims": {
                          "COUNTRY": "Colombia",
                          "YEAR": "2014",
                          "GHO": "Adolescent birth rate (per 1000 women aged 15-19 years)"
                        },
                "Comments": "Vital Registration",
                "Value": "71.6"
              },
              {
                "dims": {
                          "COUNTRY": "Comoros",
                          "YEAR": "2011",
                          "GHO": "Adolescent birth rate (per 1000 women aged 15-19 years)"
                        },
                "Comments": "Comoros 2012 Demographic and Health Survey and Multiple Indicator Cluster Survey",
                "Value": "70"
              },
              {
                "dims": {
                          "COUNTRY": "Congo",
                          "YEAR": "2010",
                          "GHO": "Adolescent birth rate (per 1000 women aged 15-19 years)"
                        },
                "Comments": "Congo 2011-2012 Demographic and Health Survey",
                "Value": "147"
              },
              {
                "dims": {
                          "COUNTRY": "Côte d'Ivoire",
                          "YEAR": "2010",
                          "GHO": "Adolescent birth rate (per 1000 women aged 15-19 years)"
                        },
                "Comments": "Côte d'Ivoire 2011-2012 Demographic and Health Survey",
                "Value": "129"
              },
              {
                "dims": {
                          "COUNTRY": "Croatia",
                          "YEAR": "2015",
                          "GHO": "Adolescent birth rate (per 1000 women aged 15-19 years)"
                        },
                "Comments": "Vital Registration",
                "Value": "9.6"
              },
              {
                "dims": {
                          "COUNTRY": "Cuba",
                          "YEAR": "2014",
                          "GHO": "Adolescent birth rate (per 1000 women aged 15-19 years)"
                        },
                "Comments": "Vital Registration",
                "Value": "50"
              },
              {
                "dims": {
                          "COUNTRY": "Cyprus",
                          "YEAR": "2015",
                          "GHO": "Adolescent birth rate (per 1000 women aged 15-19 years)"
                        },
                "Comments": "Vital Registration",
                "Value": "4.9"
              },
              {
                "dims": {
                          "COUNTRY": "Czechia",
                          "YEAR": "2015",
                          "GHO": "Adolescent birth rate (per 1000 women aged 15-19 years)"
                        },
                "Comments": "Vital Registration",
                "Value": "11.6"
              },
              {
                "dims": {
                          "COUNTRY": "Democratic People's Republic of Korea",
                          "YEAR": "2008",
                          "GHO": "Adolescent birth rate (per 1000 women aged 15-19 years)"
                        },
                "Comments": "Vital Registration",
                "Value": "0.7"
              },
              {
                "dims": {
                          "COUNTRY": "Democratic Republic of the Congo",
                          "YEAR": "2012",
                          "GHO": "Adolescent birth rate (per 1000 women aged 15-19 years)"
                        },
                "Comments": "Democratic Republic of the Congo 2013-2014 Demographic and Health Survey",
                "Value": "138"
              },
              {
                "dims": {
                          "COUNTRY": "Denmark",
                          "YEAR": "2015",
                          "GHO": "Adolescent birth rate (per 1000 women aged 15-19 years)"
                        },
                "Comments": "Vital Registration",
                "Value": "3.4"
              },
              {
                "dims": {
                          "COUNTRY": "Djibouti",
                          "YEAR": "2009",
                          "GHO": "Adolescent birth rate (per 1000 women aged 15-19 years)"
                        },
                "Comments": "Djibouti 2012 Enquête Djiboutienne auprès des menages III",
                "Value": "20.6"
              },
              {
                "dims": {
                          "COUNTRY": "Dominican Republic",
                          "YEAR": "2014",
                          "GHO": "Adolescent birth rate (per 1000 women aged 15-19 years)"
                        },
                "Comments": "Vital Registration",
                "Value": "45.3"
              },
              {
                "dims": {
                          "COUNTRY": "Ecuador",
                          "YEAR": "2014",
                          "GHO": "Adolescent birth rate (per 1000 women aged 15-19 years)"
                        },
                "Comments": "Vital Registration",
                "Value": "56.5"
              },
              {
                "dims": {
                          "COUNTRY": "Egypt",
                          "YEAR": "2012",
                          "GHO": "Adolescent birth rate (per 1000 women aged 15-19 years)"
                        },
                "Comments": "Egypt 2014 Demographic and Health Survey",
                "Value": "56"
              },
              {
                "dims": {
                          "COUNTRY": "El Salvador",
                          "YEAR": "2012",
                          "GHO": "Adolescent birth rate (per 1000 women aged 15-19 years)"
                        },
                "Comments": "Vital Registration",
                "Value": "69.2"
              },
              {
                "dims": {
                          "COUNTRY": "Equatorial Guinea",
                          "YEAR": "2010",
                          "GHO": "Adolescent birth rate (per 1000 women aged 15-19 years)"
                        },
                "Comments": "Equatorial Guinea 2011 Demographic and Health Survey",
                "Value": "176"
              },
              {
                "dims": {
                          "COUNTRY": "Eritrea",
                          "YEAR": "2008",
                          "GHO": "Adolescent birth rate (per 1000 women aged 15-19 years)"
                        },
                "Comments": "Eritrea 2010 Population and Health Survey",
                "Value": "76"
              },
              {
                "dims": {
                          "COUNTRY": "Estonia",
                          "YEAR": "2015",
                          "GHO": "Adolescent birth rate (per 1000 women aged 15-19 years)"
                        },
                "Comments": "Vital Registration",
                "Value": "12.5"
              },
              {
                "dims": {
                          "COUNTRY": "Eswatini",
                          "YEAR": "2013",
                          "GHO": "Adolescent birth rate (per 1000 women aged 15-19 years)"
                        },
                "Comments": "Swaziland 2014 Multiple Indicator Cluster Survey",
                "Value": "87"
              },
              {
                "dims": {
                          "COUNTRY": "Ethiopia",
                          "YEAR": "2014",
                          "GHO": "Adolescent birth rate (per 1000 women aged 15-19 years)"
                        },
                "Comments": "Ethiopia 2016 Demographic and Health Survey (DHS)",
                "Value": "80"
              },
              {
                "dims": {
                          "COUNTRY": "Finland",
                          "YEAR": "2015",
                          "GHO": "Adolescent birth rate (per 1000 women aged 15-19 years)"
                        },
                "Comments": "Vital Registration",
                "Value": "6.2"
              },
              {
                "dims": {
                          "COUNTRY": "France",
                          "YEAR": "2015",
                          "GHO": "Adolescent birth rate (per 1000 women aged 15-19 years)"
                        },
                "Comments": "Vital Registration",
                "Value": "9.2"
              },
              {
                "dims": {
                          "COUNTRY": "Gabon",
                          "YEAR": "2013",
                          "GHO": "Adolescent birth rate (per 1000 women aged 15-19 years)"
                        },
                "Comments": "Gabon 2013 Census",
                "Value": "91"
              },
              {
                "dims": {
                          "COUNTRY": "Gambia",
                          "YEAR": "2011",
                          "GHO": "Adolescent birth rate (per 1000 women aged 15-19 years)"
                        },
                "Comments": "Gambia 2013 Demographic and Health Survey",
                "Value": "88"
              },
              {
                "dims": {
                          "COUNTRY": "Georgia",
                          "YEAR": "2015",
                          "GHO": "Adolescent birth rate (per 1000 women aged 15-19 years)"
                        },
                "Comments": "Vital Registration",
                "Value": "47.9"
              },
              {
                "dims": {
                          "COUNTRY": "Germany",
                          "YEAR": "2015",
                          "GHO": "Adolescent birth rate (per 1000 women aged 15-19 years)"
                        },
                "Comments": "Vital Registration",
                "Value": "7.8"
              },
              {
                "dims": {
                          "COUNTRY": "Ghana",
                          "YEAR": "2013",
                          "GHO": "Adolescent birth rate (per 1000 women aged 15-19 years)"
                        },
                "Comments": "Ghana 2014 PMA2020 Round 3",
                "Value": "59"
              },
              {
                "dims": {
                          "COUNTRY": "Greece",
                          "YEAR": "2015",
                          "GHO": "Adolescent birth rate (per 1000 women aged 15-19 years)"
                        },
                "Comments": "Vital Registration",
                "Value": "8"
              },
              {
                "dims": {
                          "COUNTRY": "Guatemala",
                          "YEAR": "2013",
                          "GHO": "Adolescent birth rate (per 1000 women aged 15-19 years)"
                        },
                "Comments": "Guatemala 2014-2015 Demographic and Health Survey",
                "Value": "92"
              },
              {
                "dims": {
                          "COUNTRY": "Guinea",
                          "YEAR": "2011",
                          "GHO": "Adolescent birth rate (per 1000 women aged 15-19 years)"
                        },
                "Comments": "Guinea 2012 Demographic and Health Survey",
                "Value": "146"
              },
              {
                "dims": {
                          "COUNTRY": "Guinea-Bissau",
                          "YEAR": "2012",
                          "GHO": "Adolescent birth rate (per 1000 women aged 15-19 years)"
                        },
                "Comments": "Guinea-Bissau 2014 Multiple Indicator Cluster Survey",
                "Value": "106"
              },
              {
                "dims": {
                          "COUNTRY": "Guyana",
                          "YEAR": "2013",
                          "GHO": "Adolescent birth rate (per 1000 women aged 15-19 years)"
                        },
                "Comments": "Guyana 2014 Multiple Indicator Cluster Survey",
                "Value": "74"
              },
              {
                "dims": {
                          "COUNTRY": "Haiti",
                          "YEAR": "2011",
                          "GHO": "Adolescent birth rate (per 1000 women aged 15-19 years)"
                        },
                "Comments": "Haiti 2013 Demographic and Health Survey (DHS) non standard",
                "Value": "49"
              },
              {
                "dims": {
                          "COUNTRY": "Honduras",
                          "YEAR": "2010",
                          "GHO": "Adolescent birth rate (per 1000 women aged 15-19 years)"
                        },
                "Comments": "Honduras 2011-2012 Demographic and Health Survey",
                "Value": "101"
              },
              {
                "dims": {
                          "COUNTRY": "Hungary",
                          "YEAR": "2015",
                          "GHO": "Adolescent birth rate (per 1000 women aged 15-19 years)"
                        },
                "Comments": "Vital Registration",
                "Value": "22.8"
              },
              {
                "dims": {
                          "COUNTRY": "Iceland",
                          "YEAR": "2015",
                          "GHO": "Adolescent birth rate (per 1000 women aged 15-19 years)"
                        },
                "Comments": "Vital Registration",
                "Value": "8"
              },
              {
                "dims": {
                          "COUNTRY": "India",
                          "YEAR": "2013",
                          "GHO": "Adolescent birth rate (per 1000 women aged 15-19 years)"
                        },
                "Comments": "India Sample Registration System",
                "Value": "28.1"
              },
              {
                "dims": {
                          "COUNTRY": "Indonesia",
                          "YEAR": "2014",
                          "GHO": "Adolescent birth rate (per 1000 women aged 15-19 years)"
                        },
                "Comments": "Indonesia 2015 Intercensal Population Survey",
                "Value": "40.1"
              },
              {
                "dims": {
                          "COUNTRY": "Iran (Islamic Republic of)",
                          "YEAR": "2011",
                          "GHO": "Adolescent birth rate (per 1000 women aged 15-19 years)"
                        },
                "Comments": "Iran (Islamic Republic of) 2011 Census",
                "Value": "23"
              },
              {
                "dims": {
                          "COUNTRY": "Iraq",
                          "YEAR": "2009",
                          "GHO": "Adolescent birth rate (per 1000 women aged 15-19 years)"
                        },
                "Comments": "Iraq 2011 Multiple Indicator Cluster Survey",
                "Value": "82"
              },
              {
                "dims": {
                          "COUNTRY": "Ireland",
                          "YEAR": "2015",
                          "GHO": "Adolescent birth rate (per 1000 women aged 15-19 years)"
                        },
                "Comments": "Vital Registration",
                "Value": "8.6"
              },
              {
                "dims": {
                          "COUNTRY": "Israel",
                          "YEAR": "2015",
                          "GHO": "Adolescent birth rate (per 1000 women aged 15-19 years)"
                        },
                "Comments": "Vital Registration",
                "Value": "9.7"
              },
              {
                "dims": {
                          "COUNTRY": "Italy",
                          "YEAR": "2015",
                          "GHO": "Adolescent birth rate (per 1000 women aged 15-19 years)"
                        },
                "Comments": "Vital Registration",
                "Value": "5.1"
              },
              {
                "dims": {
                          "COUNTRY": "Jamaica",
                          "YEAR": "2011",
                          "GHO": "Adolescent birth rate (per 1000 women aged 15-19 years)"
                        },
                "Comments": "Jamaica 2011 Census",
                "Value": "45.7"
              },
              {
                "dims": {
                          "COUNTRY": "Japan",
                          "YEAR": "2015",
                          "GHO": "Adolescent birth rate (per 1000 women aged 15-19 years)"
                        },
                "Comments": "Vital Registration",
                "Value": "4.1"
              },
              {
                "dims": {
                          "COUNTRY": "Jordan",
                          "YEAR": "2011",
                          "GHO": "Adolescent birth rate (per 1000 women aged 15-19 years)"
                        },
                "Comments": "Jordan 2012 Demographic and Health Survey",
                "Value": "26"
              },
              {
                "dims": {
                          "COUNTRY": "Kazakhstan",
                          "YEAR": "2015",
                          "GHO": "Adolescent birth rate (per 1000 women aged 15-19 years)"
                        },
                "Comments": "Kazakhstan 2015 Multiple Indicator Cluster Survey",
                "Value": "36"
              },
              {
                "dims": {
                          "COUNTRY": "Kenya",
                          "YEAR": "2014",
                          "GHO": "Adolescent birth rate (per 1000 women aged 15-19 years)"
                        },
                "Comments": "Kenya 2015 Malaria Indicators Survey",
                "Value": "96"
              },
              {
                "dims": {
                          "COUNTRY": "Kiribati",
                          "YEAR": "2010",
                          "GHO": "Adolescent birth rate (per 1000 women aged 15-19 years)"
                        },
                "Comments": "Kiribati 2010 Census",
                "Value": "49.9"
              },
              {
                "dims": {
                          "COUNTRY": "Kuwait",
                          "YEAR": "2015",
                          "GHO": "Adolescent birth rate (per 1000 women aged 15-19 years)"
                        },
                "Comments": "Vital Registration",
                "Value": "6.1"
              },
              {
                "dims": {
                          "COUNTRY": "Lao People's Democratic Republic",
                          "YEAR": "2014",
                          "GHO": "Adolescent birth rate (per 1000 women aged 15-19 years)"
                        },
                "Comments": "Lao People's Democratic Republic 2015 Census",
                "Value": "75.6"
              },
              {
                "dims": {
                          "COUNTRY": "Latvia",
                          "YEAR": "2015",
                          "GHO": "Adolescent birth rate (per 1000 women aged 15-19 years)"
                        },
                "Comments": "Vital Registration",
                "Value": "18"
              },
              {
                "dims": {
                          "COUNTRY": "Lesotho",
                          "YEAR": "2013",
                          "GHO": "Adolescent birth rate (per 1000 women aged 15-19 years)"
                        },
                "Comments": "Lesotho 2014 Demographic and Health Survey",
                "Value": "94"
              },
              {
                "dims": {
                          "COUNTRY": "Liberia",
                          "YEAR": "2011",
                          "GHO": "Adolescent birth rate (per 1000 women aged 15-19 years)"
                        },
                "Comments": "Liberia 2008 Census",
                "Value": "104.8"
              },
              {
                "dims": {
                          "COUNTRY": "Libya",
                          "YEAR": "2013",
                          "GHO": "Adolescent birth rate (per 1000 women aged 15-19 years)"
                        },
                "Comments": "Libya 2014 National Family Health Survey",
                "Value": "10.9"
              },
              {
                "dims": {
                          "COUNTRY": "Lithuania",
                          "YEAR": "2015",
                          "GHO": "Adolescent birth rate (per 1000 women aged 15-19 years)"
                        },
                "Comments": "Vital Registration",
                "Value": "14.1"
              },
              {
                "dims": {
                          "COUNTRY": "Luxembourg",
                          "YEAR": "2015",
                          "GHO": "Adolescent birth rate (per 1000 women aged 15-19 years)"
                        },
                "Comments": "Vital Registration",
                "Value": "5.6"
              },
              {
                "dims": {
                          "COUNTRY": "Madagascar",
                          "YEAR": "2014",
                          "GHO": "Adolescent birth rate (per 1000 women aged 15-19 years)"
                        },
                "Comments": "Madagascar 2016 Malaria Indicators Survey (MIS)",
                "Value": "152"
              },
              {
                "dims": {
                          "COUNTRY": "Malawi",
                          "YEAR": "2014",
                          "GHO": "Adolescent birth rate (per 1000 women aged 15-19 years)"
                        },
                "Comments": "Malawi 2015-2016 Demographic and Health Survey",
                "Value": "136"
              },
              {
                "dims": {
                          "COUNTRY": "Malaysia",
                          "YEAR": "2015",
                          "GHO": "Adolescent birth rate (per 1000 women aged 15-19 years)"
                        },
                "Comments": "Vital Registration",
                "Value": "11.5"
              },
              {
                "dims": {
                          "COUNTRY": "Maldives",
                          "YEAR": "2014",
                          "GHO": "Adolescent birth rate (per 1000 women aged 15-19 years)"
                        },
                "Comments": "Vital Registration",
                "Value": "12.9"
              },
              {
                "dims": {
                          "COUNTRY": "Mali",
                          "YEAR": "2014",
                          "GHO": "Adolescent birth rate (per 1000 women aged 15-19 years)"
                        },
                "Comments": "Mali 2015 Malaria Indicators Survey",
                "Value": "174"
              },
              {
                "dims": {
                          "COUNTRY": "Malta",
                          "YEAR": "2015",
                          "GHO": "Adolescent birth rate (per 1000 women aged 15-19 years)"
                        },
                "Comments": "Vital Registration",
                "Value": "11.4"
              },
              {
                "dims": {
                          "COUNTRY": "Mauritania",
                          "YEAR": "2013",
                          "GHO": "Adolescent birth rate (per 1000 women aged 15-19 years)"
                        },
                "Comments": "Mauritania 2013 Census",
                "Value": "77"
              },
              {
                "dims": {
                          "COUNTRY": "Mauritius",
                          "YEAR": "2016",
                          "GHO": "Adolescent birth rate (per 1000 women aged 15-19 years)"
                        },
                "Comments": "Vital Registration",
                "Value": "24.1"
              },
              {
                "dims": {
                          "COUNTRY": "Mexico",
                          "YEAR": "2014",
                          "GHO": "Adolescent birth rate (per 1000 women aged 15-19 years)"
                        },
                "Comments": "Vital Registration",
                "Value": "66.2"
              },
              {
                "dims": {
                          "COUNTRY": "Mongolia",
                          "YEAR": "2014",
                          "GHO": "Adolescent birth rate (per 1000 women aged 15-19 years)"
                        },
                "Comments": "Vital Registration",
                "Value": "26.7"
              },
              {
                "dims": {
                          "COUNTRY": "Montenegro",
                          "YEAR": "2015",
                          "GHO": "Adolescent birth rate (per 1000 women aged 15-19 years)"
                        },
                "Comments": "Vital Registration",
                "Value": "11.1"
              },
              {
                "dims": {
                          "COUNTRY": "Morocco",
                          "YEAR": "2008",
                          "GHO": "Adolescent birth rate (per 1000 women aged 15-19 years)"
                        },
                "Comments": "Morocco 2011 Enquête Nationale sur la Population et la Santé Familiale",
                "Value": "32"
              },
              {
                "dims": {
                          "COUNTRY": "Mozambique",
                          "YEAR": "2010",
                          "GHO": "Adolescent birth rate (per 1000 women aged 15-19 years)"
                        },
                "Comments": "Mozambique 2011 Demographic and Health Survey",
                "Value": "167"
              },
              {
                "dims": {
                          "COUNTRY": "Myanmar",
                          "YEAR": "2014",
                          "GHO": "Adolescent birth rate (per 1000 women aged 15-19 years)"
                        },
                "Comments": "Myanmar 2015-2016 Demographic and Health Survey",
                "Value": "36"
              },
              {
                "dims": {
                          "COUNTRY": "Namibia",
                          "YEAR": "2012",
                          "GHO": "Adolescent birth rate (per 1000 women aged 15-19 years)"
                        },
                "Comments": "Namibia 2013 Demographic and Health Survey",
                "Value": "82"
              },
              {
                "dims": {
                          "COUNTRY": "Nepal",
                          "YEAR": "2015",
                          "GHO": "Adolescent birth rate (per 1000 women aged 15-19 years)"
                        },
                "Comments": "Nepal 2016 Demographic and Health Survey (DHS)",
                "Value": "88"
              },
              {
                "dims": {
                          "COUNTRY": "Netherlands",
                          "YEAR": "2015",
                          "GHO": "Adolescent birth rate (per 1000 women aged 15-19 years)"
                        },
                "Comments": "Vital Registration",
                "Value": "3.2"
              },
              {
                "dims": {
                          "COUNTRY": "New Zealand",
                          "YEAR": "2016",
                          "GHO": "Adolescent birth rate (per 1000 women aged 15-19 years)"
                        },
                "Comments": "Vital Registration",
                "Value": "16"
              },
              {
                "dims": {
                          "COUNTRY": "Nicaragua",
                          "YEAR": "2009",
                          "GHO": "Adolescent birth rate (per 1000 women aged 15-19 years)"
                        },
                "Comments": "Nicaragua 2011-2012 Demographic and Health Survey",
                "Value": "92"
              },
              {
                "dims": {
                          "COUNTRY": "Niger",
                          "YEAR": "2015",
                          "GHO": "Adolescent birth rate (per 1000 women aged 15-19 years)"
                        },
                "Comments": "Niger 2015 Etude Nationale d’Evaluation d’Indicateurs Socio-Economiques et Demographiques",
                "Value": "146"
              },
              {
                "dims": {
                          "COUNTRY": "Nigeria",
                          "YEAR": "2014",
                          "GHO": "Adolescent birth rate (per 1000 women aged 15-19 years)"
                        },
                "Comments": "Nigeria 2015 Malaria Indicators Survey",
                "Value": "145"
              },
              {
                "dims": {
                          "COUNTRY": "Norway",
                          "YEAR": "2015",
                          "GHO": "Adolescent birth rate (per 1000 women aged 15-19 years)"
                        },
                "Comments": "Vital Registration",
                "Value": "4.6"
              },
              {
                "dims": {
                          "COUNTRY": "Oman",
                          "YEAR": "2016",
                          "GHO": "Adolescent birth rate (per 1000 women aged 15-19 years)"
                        },
                "Comments": "Vital Registration",
                "Value": "13.5"
              },
              {
                "dims": {
                          "COUNTRY": "Pakistan",
                          "YEAR": "2011",
                          "GHO": "Adolescent birth rate (per 1000 women aged 15-19 years)"
                        },
                "Comments": "Pakistan 2012-2013 Demographic and Health Survey",
                "Value": "44"
              },
              {
                "dims": {
                          "COUNTRY": "Panama",
                          "YEAR": "2015",
                          "GHO": "Adolescent birth rate (per 1000 women aged 15-19 years)"
                        },
                "Comments": "Vital Registration",
                "Value": "84.3"
              },
              {
                "dims": {
                          "COUNTRY": "Paraguay",
                          "YEAR": "2008",
                          "GHO": "Adolescent birth rate (per 1000 women aged 15-19 years)"
                        },
                "Comments": "Vital Registration",
                "Value": "62.8"
              },
              {
                "dims": {
                          "COUNTRY": "Peru",
                          "YEAR": "2015",
                          "GHO": "Adolescent birth rate (per 1000 women aged 15-19 years)"
                        },
                "Comments": "Vital Registration",
                "Value": "49.4"
              },
              {
                "dims": {
                          "COUNTRY": "Philippines",
                          "YEAR": "2012",
                          "GHO": "Adolescent birth rate (per 1000 women aged 15-19 years)"
                        },
                "Comments": "Philippines 2013 Demographic and Health Survey",
                "Value": "57"
              },
              {
                "dims": {
                          "COUNTRY": "Poland",
                          "YEAR": "2015",
                          "GHO": "Adolescent birth rate (per 1000 women aged 15-19 years)"
                        },
                "Comments": "Vital Registration",
                "Value": "12.3"
              },
              {
                "dims": {
                          "COUNTRY": "Portugal",
                          "YEAR": "2015",
                          "GHO": "Adolescent birth rate (per 1000 women aged 15-19 years)"
                        },
                "Comments": "Vital Registration",
                "Value": "8.2"
              },
              {
                "dims": {
                          "COUNTRY": "Qatar",
                          "YEAR": "2015",
                          "GHO": "Adolescent birth rate (per 1000 women aged 15-19 years)"
                        },
                "Comments": "Vital Registration",
                "Value": "10.5"
              },
              {
                "dims": {
                          "COUNTRY": "Republic of Korea",
                          "YEAR": "2016",
                          "GHO": "Adolescent birth rate (per 1000 women aged 15-19 years)"
                        },
                "Comments": "Vital Registration",
                "Value": "1.3"
              },
              {
                "dims": {
                          "COUNTRY": "Republic of Moldova",
                          "YEAR": "2014",
                          "GHO": "Adolescent birth rate (per 1000 women aged 15-19 years)"
                        },
                "Comments": "Vital Registration",
                "Value": "26.7"
              },
              {
                "dims": {
                          "COUNTRY": "Romania",
                          "YEAR": "2015",
                          "GHO": "Adolescent birth rate (per 1000 women aged 15-19 years)"
                        },
                "Comments": "Vital Registration",
                "Value": "35.3"
              },
              {
                "dims": {
                          "COUNTRY": "Russian Federation",
                          "YEAR": "2015",
                          "GHO": "Adolescent birth rate (per 1000 women aged 15-19 years)"
                        },
                "Comments": "Vital Registration",
                "Value": "24"
              },
              {
                "dims": {
                          "COUNTRY": "Rwanda",
                          "YEAR": "2014",
                          "GHO": "Adolescent birth rate (per 1000 women aged 15-19 years)"
                        },
                "Comments": "Rwanda 2014-2015 Demographic and Health Survey",
                "Value": "45"
              },
              {
                "dims": {
                          "COUNTRY": "Saint Vincent and the Grenadines",
                          "YEAR": "2014",
                          "GHO": "Adolescent birth rate (per 1000 women aged 15-19 years)"
                        },
                "Comments": "Vital Registration",
                "Value": "63.7"
              },
              {
                "dims": {
                          "COUNTRY": "Samoa",
                          "YEAR": "2011",
                          "GHO": "Adolescent birth rate (per 1000 women aged 15-19 years)"
                        },
                "Comments": "Samoa 2011 Census",
                "Value": "39.2"
              },
              {
                "dims": {
                          "COUNTRY": "Sao Tome and Principe",
                          "YEAR": "2013",
                          "GHO": "Adolescent birth rate (per 1000 women aged 15-19 years)"
                        },
                "Comments": "Sao Tome and Principe 2014 Multiple Indicator Cluster Survey",
                "Value": "92"
              },
              {
                "dims": {
                          "COUNTRY": "Senegal",
                          "YEAR": "2013",
                          "GHO": "Adolescent birth rate (per 1000 women aged 15-19 years)"
                        },
                "Comments": "Senegal 2015 Demographic and Health Survey",
                "Value": "80"
              },
              {
                "dims": {
                          "COUNTRY": "Serbia",
                          "YEAR": "2015",
                          "GHO": "Adolescent birth rate (per 1000 women aged 15-19 years)"
                        },
                "Comments": "Vital Registration",
                "Value": "16.4"
              },
              {
                "dims": {
                          "COUNTRY": "Seychelles",
                          "YEAR": "2015",
                          "GHO": "Adolescent birth rate (per 1000 women aged 15-19 years)"
                        },
                "Comments": "Vital Registration",
                "Value": "65.8"
              },
              {
                "dims": {
                          "COUNTRY": "Sierra Leone",
                          "YEAR": "2012",
                          "GHO": "Adolescent birth rate (per 1000 women aged 15-19 years)"
                        },
                "Comments": "Sierra Leone 2013 Demographic and Health Survey",
                "Value": "125"
              },
              {
                "dims": {
                          "COUNTRY": "Singapore",
                          "YEAR": "2015",
                          "GHO": "Adolescent birth rate (per 1000 women aged 15-19 years)"
                        },
                "Comments": "Vital Registration",
                "Value": "2.7"
              },
              {
                "dims": {
                          "COUNTRY": "Slovakia",
                          "YEAR": "2015",
                          "GHO": "Adolescent birth rate (per 1000 women aged 15-19 years)"
                        },
                "Comments": "Vital Registration",
                "Value": "24.3"
              },
              {
                "dims": {
                          "COUNTRY": "Slovenia",
                          "YEAR": "2015",
                          "GHO": "Adolescent birth rate (per 1000 women aged 15-19 years)"
                        },
                "Comments": "Vital Registration",
                "Value": "4.5"
              },
              {
                "dims": {
                          "COUNTRY": "Solomon Islands",
                          "YEAR": "2009",
                          "GHO": "Adolescent birth rate (per 1000 women aged 15-19 years)"
                        },
                "Comments": "Solomon Islands 2009 Census",
                "Value": "42"
              },
              {
                "dims": {
                          "COUNTRY": "South Africa",
                          "YEAR": "2015",
                          "GHO": "Adolescent birth rate (per 1000 women aged 15-19 years)"
                        },
                "Comments": "South Africa 2016 Demographic and Health Survey (DHS)",
                "Value": "71"
              },
              {
                "dims": {
                          "COUNTRY": "South Sudan",
                          "YEAR": "2008",
                          "GHO": "Adolescent birth rate (per 1000 women aged 15-19 years)"
                        },
                "Comments": "South Sudan 2010 Household Health Survey Second Round",
                "Value": "158.1"
              },
              {
                "dims": {
                          "COUNTRY": "Spain",
                          "YEAR": "2015",
                          "GHO": "Adolescent birth rate (per 1000 women aged 15-19 years)"
                        },
                "Comments": "Vital Registration",
                "Value": "7.7"
              },
              {
                "dims": {
                          "COUNTRY": "Sri Lanka",
                          "YEAR": "2008",
                          "GHO": "Adolescent birth rate (per 1000 women aged 15-19 years)"
                        },
                "Comments": "Vital Registration",
                "Value": "20.3"
              },
              {
                "dims": {
                          "COUNTRY": "Sudan",
                          "YEAR": "2013",
                          "GHO": "Adolescent birth rate (per 1000 women aged 15-19 years)"
                        },
                "Comments": "Sudan 2014 Multiple Indicator Cluster Survey",
                "Value": "87"
              },
              {
                "dims": {
                          "COUNTRY": "Suriname",
                          "YEAR": "2014",
                          "GHO": "Adolescent birth rate (per 1000 women aged 15-19 years)"
                        },
                "Comments": "Vital Registration",
                "Value": "57.7"
              },
              {
                "dims": {
                          "COUNTRY": "Sweden",
                          "YEAR": "2015",
                          "GHO": "Adolescent birth rate (per 1000 women aged 15-19 years)"
                        },
                "Comments": "Vital Registration",
                "Value": "4.4"
              },
              {
                "dims": {
                          "COUNTRY": "Switzerland",
                          "YEAR": "2015",
                          "GHO": "Adolescent birth rate (per 1000 women aged 15-19 years)"
                        },
                "Comments": "Vital Registration",
                "Value": "2.6"
              },
              {
                "dims": {
                          "COUNTRY": "Syrian Arab Republic",
                          "YEAR": "2009",
                          "GHO": "Adolescent birth rate (per 1000 women aged 15-19 years)"
                        },
                "Comments": "Syrian Arab Republic 2009 Family Health Survey",
                "Value": "54"
              },
              {
                "dims": {
                          "COUNTRY": "Tajikistan",
                          "YEAR": "2011",
                          "GHO": "Adolescent birth rate (per 1000 women aged 15-19 years)"
                        },
                "Comments": "Tajikistan 2012 Demographic and Health Survey",
                "Value": "54"
              },
              {
                "dims": {
                          "COUNTRY": "Thailand",
                          "YEAR": "2015",
                          "GHO": "Adolescent birth rate (per 1000 women aged 15-19 years)"
                        },
                "Comments": "Thailand 2015-2016 Multiple Indicator Cluster Survey",
                "Value": "51"
              },
              {
                "dims": {
                          "COUNTRY": "Republic of North Macedonia",
                          "YEAR": "2009",
                          "GHO": "Adolescent birth rate (per 1000 women aged 15-19 years)"
                        },
                "Comments": "All sources of estimates",
                "Value": "20.1"
              },
              {
                "dims": {
                          "COUNTRY": "Togo",
                          "YEAR": "2011",
                          "GHO": "Adolescent birth rate (per 1000 women aged 15-19 years)"
                        },
                "Comments": "Togo 2013-2014 Demographic and Health Survey and MICS",
                "Value": "85"
              },
              {
                "dims": {
                          "COUNTRY": "Tonga",
                          "YEAR": "2011",
                          "GHO": "Adolescent birth rate (per 1000 women aged 15-19 years)"
                        },
                "Comments": "Tonga 2011 Census of Population and Housing",
                "Value": "30"
              },
              {
                "dims": {
                          "COUNTRY": "Trinidad and Tobago",
                          "YEAR": "2009",
                          "GHO": "Adolescent birth rate (per 1000 women aged 15-19 years)"
                        },
                "Comments": "Vital Registration",
                "Value": "38"
              },
              {
                "dims": {
                          "COUNTRY": "Tunisia",
                          "YEAR": "2010",
                          "GHO": "Adolescent birth rate (per 1000 women aged 15-19 years)"
                        },
                "Comments": "Tunisia 2011-2012 Multiple Indicator Cluster Survey",
                "Value": "3"
              },
              {
                "dims": {
                          "COUNTRY": "Turkey",
                          "YEAR": "2014",
                          "GHO": "Adolescent birth rate (per 1000 women aged 15-19 years)"
                        },
                "Comments": "Vital Registration",
                "Value": "26.9"
              },
              {
                "dims": {
                          "COUNTRY": "Turkmenistan",
                          "YEAR": "2014",
                          "GHO": "Adolescent birth rate (per 1000 women aged 15-19 years)"
                        },
                "Comments": "Turkmenistan 2015 Multiple Indicator Cluster Survey",
                "Value": "28"
              },
              {
                "dims": {
                          "COUNTRY": "Uganda",
                          "YEAR": "2013",
                          "GHO": "Adolescent birth rate (per 1000 women aged 15-19 years)"
                        },
                "Comments": "Uganda 2014-2015 Malaria Indicators Survey",
                "Value": "141"
              },
              {
                "dims": {
                          "COUNTRY": "Ukraine",
                          "YEAR": "2014",
                          "GHO": "Adolescent birth rate (per 1000 women aged 15-19 years)"
                        },
                "Comments": "Vital Registration",
                "Value": "26.1"
              },
              {
                "dims": {
                          "COUNTRY": "United Arab Emirates",
                          "YEAR": "2009",
                          "GHO": "Adolescent birth rate (per 1000 women aged 15-19 years)"
                        },
                "Comments": "Vital Registration",
                "Value": "34.2"
              },
              {
                "dims": {
                          "COUNTRY": "United Kingdom of Great Britain and Northern Ireland",
                          "YEAR": "2015",
                          "GHO": "Adolescent birth rate (per 1000 women aged 15-19 years)"
                        },
                "Comments": "Vital Registration",
                "Value": "14.4"
              },
              {
                "dims": {
                          "COUNTRY": "United Republic of Tanzania",
                          "YEAR": "2014",
                          "GHO": "Adolescent birth rate (per 1000 women aged 15-19 years)"
                        },
                "Comments": "United Republic of Tanzania 2015-2016 Demographic and Health Survey",
                "Value": "132"
              },
              {
                "dims": {
                          "COUNTRY": "United States of America",
                          "YEAR": "2015",
                          "GHO": "Adolescent birth rate (per 1000 women aged 15-19 years)"
                        },
                "Comments": "Vital Registration",
                "Value": "22.3"
              },
              {
                "dims": {
                          "COUNTRY": "Uruguay",
                          "YEAR": "2015",
                          "GHO": "Adolescent birth rate (per 1000 women aged 15-19 years)"
                        },
                "Comments": "Vital Registration",
                "Value": "55.6"
              },
              {
                "dims": {
                          "COUNTRY": "Uzbekistan",
                          "YEAR": "2010",
                          "GHO": "Adolescent birth rate (per 1000 women aged 15-19 years)"
                        },
                "Comments": "Vital Registration",
                "Value": "29.5"
              },
              {
                "dims": {
                          "COUNTRY": "Vanuatu",
                          "YEAR": "2011",
                          "GHO": "Adolescent birth rate (per 1000 women aged 15-19 years)"
                        },
                "Comments": "Vanuatu 2013 Demographic and Health Survey – MICS",
                "Value": "78"
              },
              {
                "dims": {
                          "COUNTRY": "Viet Nam",
                          "YEAR": "2014",
                          "GHO": "Adolescent birth rate (per 1000 women aged 15-19 years)"
                        },
                "Comments": "Viet Nam 2014 Intercensal Population and Housing Survey",
                "Value": "30.1"
              },
              {
                "dims": {
                          "COUNTRY": "Yemen",
                          "YEAR": "2012",
                          "GHO": "Adolescent birth rate (per 1000 women aged 15-19 years)"
                        },
                "Comments": "Yemen 2013 Demographic and Health Survey",
                "Value": "67"
              },
              {
                "dims": {
                          "COUNTRY": "Zambia",
                          "YEAR": "2012",
                          "GHO": "Adolescent birth rate (per 1000 women aged 15-19 years)"
                        },
                "Comments": "Zambia 2013-2014 Demographic and Health Survey",
                "Value": "141"
              },
              {
                "dims": {
                          "COUNTRY": "Zimbabwe",
                          "YEAR": "2014",
                          "GHO": "Adolescent birth rate (per 1000 women aged 15-19 years)"
                        },
                "Comments": "Zimbabwe 2015 Demographic and Health Survey",
                "Value": "110"
              }
      ]
}
